restaurant\Table.class
restaurant\Bar.class
restaurant\Chef.class
restaurant\Hall.class
restaurant\Barman.class
restaurant\CustomException.class
restaurant\Restaurant.class
restaurant\RestaurantSimulation.class
restaurant\Kitchen.class
restaurant\Waiter.class
restaurant\Customer.class
